[{
  "serviceId": 0,
  "serviceType": "WMSServer",
  "name": "Mapa Referencia IDECA Calles",
  "id": "ideca2",
  "url": "http://serviciosgis.catastrobogota.gov.co/arcgis/services/Mapa_Referencia/Mapa_Referencia/MapServer/WMSServer",
  "icon": "css/img/Ideca.jpg",
  "layers": "49,46,38,40,39,25,23,14,12,15,8,4",
  "opacity": 1,
  "type": "",
  "groupId": "urbano",
  "visible": false,
  "enable": false
}, {
  "serviceId": 3,
  "serviceType": "WMSServer",
  "name": "Prueba",
  "id": "prueba",
  "url": "http://localhost:8080/cgi-bin/qgis_mapserv.fcgi?MAP=/home/qgis/projects/qgis/flisol_project.qgz",
  "icon": "css/img/Lote.jpg",
  "layers": "FlisolConcentracionMensual25",
  "opacity": 1,
  "type": "",
  "groupId": "urbano",
  "visible": true,
  "enable": true
}, {
  "serviceId": 15,
  "serviceType": "MapServer",
  "name": "OrtoFoto Bogotá",
  "id": "Ortho2014",
  "url": "http://serviciosgis.eastus.cloudapp.azure.com/arcgis/rest/services/Imagenes/Ortho2014/MapServer",
  "opacity": 0.8,
  "type": "ArcGISTiledMapServiceLayer",
  "enable": false
}]
